{"filesize": "", "keyword": "", "list": [{"ID": "af4832c505b749dea76e22a193f873c6", "EPS_NAME": "\u90d1\u5dde\u4ed8\u6c0f\u80b2\u53d1\u5316\u5986\u54c1\u6709\u9650\u516c\u53f8", "PRODUCT_SN": "\u8c6b\u598620160033", "CITY_CODE": "6", "XK_COMPLETE_DATE": {"date": 31, "day": 5, "hours": 0, "minutes": 0, "month": 11, "nanos": 0, "seconds": 0, "time": 1640880000000, "timezoneOffset": -480, "year": 121}, "XK_DATE": "2026-12-31", "QF_MANAGER_NAME": "\u90d1\u5dde\u5e02\u5e02\u573a\u76d1\u7763\u7ba1\u7406\u5c40", "BUSINESS_LICENSE_NUMBER": "914101057457968673", "XC_DATE": "2021-12-31", "NUM_": 1}, {"ID": "a17b1a0ba1f44ae98699be82f69ff032", "EPS_NAME": "\u6cb3\u5357\u6c49\u65b9\u836f\u4e1a\u6709\u9650\u8d23\u4efb\u516c\u53f8", "PRODUCT_SN": "\u8c6b\u598620160009", "CITY_CODE": "6", "XK_COMPLETE_DATE": {"date": 31, "day": 5, "hours": 0, "minutes": 0, "month": 11, "nanos": 0, "seconds": 0, "time": 1640880000000, "timezoneOffset": -480, "year": 121}, "XK_DATE": "2026-12-31", "QF_MANAGER_NAME": "\u90d1\u5dde\u5e02\u5e02\u573a\u76d1\u7763\u7ba1\u7406\u5c40", "BUSINESS_LICENSE_NUMBER": "914101057296068835", "XC_DATE": "2021-12-31", "NUM_": 2}, {"ID": "a0a23eaddb5b4838a454506693daa233", "EPS_NAME": "\u629a\u987a\u80dc\u5b9d\u65e5\u7528\u5316\u5de5\u6709\u9650\u516c\u53f8", "PRODUCT_SN": "\u8fbd\u598620160053", "CITY_CODE": "289", "XK_COMPLETE_DATE": {"date": 29, "day": 3, "hours": 0, "minutes": 0, "month": 11, "nanos": 0, "seconds": 0, "time": 1640707200000, "timezoneOffset": -480, "year": 121}, "XK_DATE": "2026-12-29", "QF_MANAGER_NAME": "\u8fbd\u5b81\u7701\u98df\u54c1\u836f\u54c1\u76d1\u7763\u7ba1\u7406\u5c40", "BUSINESS_LICENSE_NUMBER": "912104006037307152", "XC_DATE": "2021-12-29", "NUM_": 3}, {"ID": "5b7cec5e6e124ab4848d27f265bdf193", "EPS_NAME": "\u6c88\u9633\u5929\u4e50\u4fdd\u5316\u54c1\u6709\u9650\u516c\u53f8", "PRODUCT_SN": "\u8fbd\u598620160042", "CITY_CODE": "285", "XK_COMPLETE_DATE": {"date": 29, "day": 3, "hours": 0, "minutes": 0, "month": 11, "nanos": 0, "seconds": 0, "time": 1640707200000, "timezoneOffset": -480, "year": 121}, "XK_DATE": "2026-12-29", "QF_MANAGER_NAME": "\u8fbd\u5b81\u7701\u98df\u54c1\u836f\u54c1\u76d1\u7763\u7ba1\u7406\u5c40", "BUSINESS_LICENSE_NUMBER": "91210100691965396X", "XC_DATE": "2021-12-29", "NUM_": 4}, {"ID": "0f0fa8a53609482e87ff5089f579f909", "EPS_NAME": "\u516d\u672c\u6728\u5316\u5986\u54c1\uff08\u5927\u8fde\uff09\u6709\u9650\u516c\u53f8", "PRODUCT_SN": "\u8fbd\u598620160035", "CITY_CODE": "287", "XK_COMPLETE_DATE": {"date": 29, "day": 3, "hours": 0, "minutes": 0, "month": 11, "nanos": 0, "seconds": 0, "time": 1640707200000, "timezoneOffset": -480, "year": 121}, "XK_DATE": "2026-12-29", "QF_MANAGER_NAME": "\u8fbd\u5b81\u7701\u98df\u54c1\u836f\u54c1\u76d1\u7763\u7ba1\u7406\u5c40", "BUSINESS_LICENSE_NUMBER": "912102427169249549", "XC_DATE": "2021-12-29", "NUM_": 5}, {"ID": "7b85196bed6b48b9b73eaa28075a724f", "EPS_NAME": "\u8425\u53e3\u4e09\u559c\u52a0\u5de5\u6709\u9650\u516c\u53f8", "PRODUCT_SN": "\u8fbd\u598620160021", "CITY_CODE": "293", "XK_COMPLETE_DATE": {"date": 6, "day": 1, "hours": 0, "minutes": 0, "month": 11, "nanos": 0, "seconds": 0, "time": 1638720000000, "timezoneOffset": -480, "year": 121}, "XK_DATE": "2026-12-06", "QF_MANAGER_NAME": "\u8fbd\u5b81\u7701\u98df\u54c1\u836f\u54c1\u76d1\u7763\u7ba1\u7406\u5c40", "BUSINESS_LICENSE_NUMBER": "91210800604111991C", "XC_DATE": "2021-12-06", "NUM_": 6}, {"ID": "2b06a7da84b54f5890d4183144f6caaf", "EPS_NAME": "\u6dee\u5b89\u5e02\u5609\u6052\u5316\u5986\u54c1\u6709\u9650\u516c\u53f8", "PRODUCT_SN": "\u82cf\u598620160139", "CITY_CODE": "89", "XK_COMPLETE_DATE": {"date": 30, "day": 2, "hours": 0, "minutes": 0, "month": 10, "nanos": 0, "seconds": 0, "time": 1638201600000, "timezoneOffset": -480, "year": 121}, "XK_DATE": "2026-11-30", "QF_MANAGER_NAME": "\u6dee\u5b89\u98df\u54c1\u836f\u54c1\u76d1\u7763\u7ba1\u7406\u5c40", "BUSINESS_LICENSE_NUMBER": "91320804689604110J", "XC_DATE": "2021-11-30", "NUM_": 7}, {"ID": "f8d40adab1a542a68b0d1ef7bd7fd3e9", "EPS_NAME": "\u6c49\u7687\u5370\u8c61\u6c5f\u82cf\u751f\u7269\u79d1\u6280\u80a1\u4efd\u6709\u9650\u516c\u53f8", "PRODUCT_SN": "\u82cf\u598620160136", "CITY_CODE": "92", "XK_COMPLETE_DATE": {"date": 30, "day": 2, "hours": 0, "minutes": 0, "month": 10, "nanos": 0, "seconds": 0, "time": 1638201600000, "timezoneOffset": -480, "year": 121}, "XK_DATE": "2026-11-30", "QF_MANAGER_NAME": "\u6c5f\u82cf\u7701\u836f\u54c1\u76d1\u7763\u7ba1\u7406\u5c40", "BUSINESS_LICENSE_NUMBER": "91321283066253879H", "XC_DATE": "2021-11-30", "NUM_": 8}, {"ID": "bc18b423e6414814bcef24dd8988e91f", "EPS_NAME": "\u4e91\u5357\u666e\u6d31\u4e39\u5dde\u5236\u836f\u80a1\u4efd\u6709\u9650\u516c\u53f8", "PRODUCT_SN": "\u4e91\u598620160021", "CITY_CODE": "205", "XK_COMPLETE_DATE": {"date": 23, "day": 2, "hours": 0, "minutes": 0, "month": 10, "nanos": 0, "seconds": 0, "time": 1637596800000, "timezoneOffset": -480, "year": 121}, "XK_DATE": "2026-11-23", "QF_MANAGER_NAME": "\u4e91\u5357\u7701\u836f\u54c1\u76d1\u7763\u7ba1\u7406\u5c40", "BUSINESS_LICENSE_NUMBER": "91530800550134011Q", "XC_DATE": "2021-11-23", "NUM_": 9}, {"ID": "9a2f107dbf42480c945ef134c5162f59", "EPS_NAME": "\u6c5f\u82cf\u96ea\u8c79\u65e5\u5316\u6709\u9650\u516c\u53f8", "PRODUCT_SN": "\u82cf\u598620160117", "CITY_CODE": "82", "XK_COMPLETE_DATE": {"date": 14, "day": 0, "hours": 0, "minutes": 0, "month": 10, "nanos": 0, "seconds": 0, "time": 1636819200000, "timezoneOffset": -480, "year": 121}, "XK_DATE": "2026-11-14", "QF_MANAGER_NAME": "\u6c5f\u82cf\u7701\u836f\u54c1\u76d1\u7763\u7ba1\u7406\u5c40", "BUSINESS_LICENSE_NUMBER": "91320281769861002Q", "XC_DATE": "2021-11-14", "NUM_": 10}, {"ID": "87c346e980064434a01c0e9d5f2c58fe", "EPS_NAME": "\u4e94\u5927\u8fde\u6c60\u98ce\u666f\u540d\u80dc\u533a\u8fde\u6c60\u6fb3\u6ce5\u5316\u5986\u54c1\u6709\u9650\u8d23\u4efb\u516c\u53f8", "PRODUCT_SN": "\u9ed1\u598620160014", "CITY_CODE": "271", "XK_COMPLETE_DATE": {"date": 10, "day": 3, "hours": 0, "minutes": 0, "month": 10, "nanos": 0, "seconds": 0, "time": 1636473600000, "timezoneOffset": -480, "year": 121}, "XK_DATE": "2026-11-10", "QF_MANAGER_NAME": "\u9ed1\u9f99\u6c5f\u7701\u836f\u54c1\u76d1\u7763\u7ba1\u7406\u5c40", "BUSINESS_LICENSE_NUMBER": "912311037444376519", "XC_DATE": "2021-11-10", "NUM_": 11}, {"ID": "079d64dc3bea4bc0b1dac9842477644f", "EPS_NAME": "\u5929\u6d25\u7f8e\u4e4b\u8def\u5316\u5986\u54c1\u6709\u9650\u516c\u53f8", "PRODUCT_SN": "\u6d25\u598620160036", "CITY_CODE": "412", "XK_COMPLETE_DATE": {"date": 9, "day": 2, "hours": 0, "minutes": 0, "month": 10, "nanos": 0, "seconds": 0, "time": 1636387200000, "timezoneOffset": -480, "year": 121}, "XK_DATE": "2021-12-26", "QF_MANAGER_NAME": "\u5929\u6d25\u5e02\u5e02\u573a\u548c\u8d28\u91cf\u76d1\u7763\u7ba1\u7406\u59d4\u5458\u4f1a", "BUSINESS_LICENSE_NUMBER": "911201116005342092", "XC_DATE": "2021-11-09", "NUM_": 12}, {"ID": "25704f39f42643ea8e309d573bfd6ae9", "EPS_NAME": "\u626c\u5dde\u6fb3\u5eb7\u65e5\u5316\u6709\u9650\u516c\u53f8", "PRODUCT_SN": "\u82cf\u598620160021", "CITY_CODE": "86", "XK_COMPLETE_DATE": {"date": 8, "day": 1, "hours": 0, "minutes": 0, "month": 10, "nanos": 0, "seconds": 0, "time": 1636300800000, "timezoneOffset": -480, "year": 121}, "XK_DATE": "2024-05-23", "QF_MANAGER_NAME": "\u6c5f\u82cf\u7701\u836f\u54c1\u76d1\u7763\u7ba1\u7406\u5c40", "BUSINESS_LICENSE_NUMBER": "913210163021418370", "XC_DATE": "2021-11-08", "NUM_": 13}, {"ID": "f56163ea597e457d92872e63aa6fcc25", "EPS_NAME": "\u626c\u5dde\u5e02\u534e\u661f\u5316\u5986\u54c1\u6709\u9650\u516c\u53f8", "PRODUCT_SN": "\u82cf\u598620160131", "CITY_CODE": "86", "XK_COMPLETE_DATE": {"date": 5, "day": 5, "hours": 0, "minutes": 0, "month": 10, "nanos": 0, "seconds": 0, "time": 1636041600000, "timezoneOffset": -480, "year": 121}, "XK_DATE": "2026-11-04", "QF_MANAGER_NAME": "\u6c5f\u82cf\u7701\u836f\u54c1\u76d1\u7763\u7ba1\u7406\u5c40", "BUSINESS_LICENSE_NUMBER": "91321012752049026k", "XC_DATE": "2021-11-05", "NUM_": 14}, {"ID": "b039f7e73cef42c9983675b83766ad75", "EPS_NAME": "\u626c\u5dde\u5e02\u6c38\u6625\u65c5\u6e38\u7528\u54c1\u5382", "PRODUCT_SN": "\u82cf\u598620160059", "CITY_CODE": "86", "XK_COMPLETE_DATE": {"date": 5, "day": 5, "hours": 0, "minutes": 0, "month": 10, "nanos": 0, "seconds": 0, "time": 1636041600000, "timezoneOffset": -480, "year": 121}, "XK_DATE": "2023-01-01", "QF_MANAGER_NAME": "\u6c5f\u82cf\u7701\u836f\u54c1\u76d1\u7763\u7ba1\u7406\u5c40", "BUSINESS_LICENSE_NUMBER": "91321016X08806332P", "XC_DATE": "2021-11-05", "NUM_": 15}], "orderBy": "createDate", "orderType": "desc", "pageCount": 382, "pageNumber": 1, "pageSize": 15, "property": "", "totalCount": 5726}